{"count":331,"next":"https://ll.thespacedevs.com/2.0.0/launch/upcoming/?limit=10&offset=10","previous":null,"results":[{"id":"1c099ba2-9b8f-4364-8ba0-0c26f7993dd5","url":"https://ll.thespacedevs.com/2.0.0/launch/1c099ba2-9b8f-4364-8ba0-0c26f7993dd5/","launch_library_id":null,"slug":"falcon-9-block-5-starlink-group-6-18","name":"Falcon 9 Block 5 | Starlink Group 6-18","status":{"id":3,"name":"Success"},"net":"2023-09-24T03:38:30Z","window_end":"2023-09-24T04:05:30Z","window_start":"2023-09-24T01:07:00Z","inhold":false,"tbdtime":false,"tbddate":false,"probability":95,"holdreason":"","failreason":"","hashtag":null,"launch_service_provider":{"id":121,"url":"https://ll.thespacedevs.com/2.0.0/agencies/121/","name":"SpaceX","type":"Commercial"},"rocket":{"id":7870,"configuration":{"id":164,"launch_library_id":188,"url":"https://ll.thespacedevs.com/2.0.0/config/launcher/164/","name":"Falcon 9","family":"Falcon","full_name":"Falcon 9 Block 5","variant":"Block 5"}},"mission":{"id":6378,"launch_library_id":null,"name":"Starlink Group 6-18","description":"A batch of satellites for the Starlink mega-constellation - SpaceX's project for space-based Internet communication system.","launch_designator":null,"type":"Communications","orbit":{"id":8,"name":"Low Earth Orbit","abbrev":"LEO"}},"pad":{"id":80,"url":"https://ll.thespacedevs.com/2.0.0/pad/80/","agency_id":121,"name":"Space Launch Complex 40","info_url":null,"wiki_url":"https://en.wikipedia.org/wiki/Cape_Canaveral_Air_Force_Station_Space_Launch_Complex_40","map_url":"https://www.google.com/maps?q=28.56194122,-80.57735736","latitude":"28.56194122","longitude":"-80.57735736","location":{"id":12,"url":"https://ll.thespacedevs.com/2.0.0/location/12/","name":"Cape Canaveral, FL, USA","country_code":"USA","map_image":"https://spacelaunchnow-prod-east.nyc3.digitaloceanspaces.com/media/launch_images/location_12_20200803142519.jpg","total_launch_count":909,"total_landing_count":37},"map_image":"https://spacelaunchnow-prod-east.nyc3.digitaloceanspaces.com/media/launch_images/pad_80_20200803143323.jpg","total_launch_count":201},"webcast_live":false,"image":"https://spacelaunchnow-prod-east.nyc3.digitaloceanspaces.com/media/launch_images/falcon2520925_image_20230522091403.png","infographic":null,"program":[]},{"id":"1da29c40-6c7d-4cda-9b3b-d2c12c78c82b","url":"https://ll.thespacedevs.com/2.0.0/launch/1da29c40-6c7d-4cda-9b3b-d2c12c78c82b/","launch_library_id":null,"slug":"falcon-9-block-5-starlink-group-7-3","name":"Falcon 9 Block 5 | Starlink Group 7-3","status":{"id":1,"name":"Go"},"net":"2023-09-25T07:23:40Z","window_end":"2023-09-25T11:04:30Z","window_start":"2023-09-25T07:23:40Z","inhold":false,"tbdtime":false,"tbddate":false,"probability":null,"holdreason":"","failreason":"","hashtag":null,"launch_service_provider":{"id":121,"url":"https://ll.thespacedevs.com/2.0.0/agencies/121/","name":"SpaceX","type":"Commercial"},"rocket":{"id":7950,"configuration":{"id":164,"launch_library_id":188,"url":"https://ll.thespacedevs.com/2.0.0/config/launcher/164/","name":"Falcon 9","family":"Falcon","full_name":"Falcon 9 Block 5","variant":"Block 5"}},"mission":{"id":6466,"launch_library_id":null,"name":"Starlink Group 7-3","description":"A batch of satellites for the Starlink mega-constellation - SpaceX's project for space-based Internet communication system.","launch_designator":null,"type":"Communications","orbit":{"id":8,"name":"Low Earth Orbit","abbrev":"LEO"}},"pad":{"id":16,"url":"https://ll.thespacedevs.com/2.0.0/pad/16/","agency_id":null,"name":"Space Launch Complex 4E","info_url":null,"wiki_url":"","map_url":"https://www.google.com/maps?q=34.632,-120.611","latitude":"34.632","longitude":"-120.611","location":{"id":11,"url":"https://ll.thespacedevs.com/2.0.0/location/11/","name":"Vandenberg SFB, CA, USA","country_code":"USA","map_image":"https://spacelaunchnow-prod-east.nyc3.digitaloceanspaces.com/media/launch_images/location_11_20200803142416.jpg","total_launch_count":729,"total_landing_count":12},"map_image":"https://spacelaunchnow-prod-east.nyc3.digitaloceanspaces.com/media/launch_images/pad_16_20200803143532.jpg","total_launch_count":119},"webcast_live":false,"image":"https://spacelaunchnow-prod-east.nyc3.digitaloceanspaces.com/media/launch_images/falcon2520925_image_20230710073235.png","infographic":null,"program":[]},{"id":"41141d58-0df9-49ff-a33d-b296aa864ec8","url":"https://ll.thespacedevs.com/2.0.0/launch/41141d58-0df9-49ff-a33d-b296aa864ec8/","launch_library_id":null,"slug":"long-march-4c-unknown-payload","name":"Long March 4C | Unknown Payload","status":{"id":1,"name":"Go"},"net":"2023-09-26T20:18:00Z","window_end":"2023-09-26T20:29:00Z","window_start":"2023-09-26T20:06:00Z","inhold":false,"tbdtime":false,"tbddate":false,"probability":null,"holdreason":"","failreason":"","hashtag":null,"launch_service_provider":{"id":88,"url":"https://ll.thespacedevs.com/2.0.0/agencies/88/","name":"China Aerospace Science and Technology Corporation","type":"Government"},"rocket":{"id":8000,"configuration":{"id":64,"launch_library_id":70,"url":"https://ll.thespacedevs.com/2.0.0/config/launcher/64/","name":"Long March 4C","family":"Long March 4","full_name":"Long March 4C","variant":"C"}},"mission":null,"pad":{"id":22,"url":"https://ll.thespacedevs.com/2.0.0/pad/22/","agency_id":null,"name":"Launch Area 4 (SLS-2 / 603)","info_url":null,"wiki_url":"https://en.wikipedia.org/wiki/Jiuquan_Launch_Area_4","map_url":"https://www.google.com/maps?q=40.960482,100.298059","latitude":"40.960482","longitude":"100.298059","location":{"id":17,"url":"https://ll.thespacedevs.com/2.0.0/location/17/","name":"Jiuquan Satellite Launch Center, People's Republic of China","country_code":"CHN","map_image":"https://spacelaunchnow-prod-east.nyc3.digitaloceanspaces.com/media/launch_images/location_17_20200803142429.jpg","total_launch_count":206,"total_landing_count":0},"map_image":"https://spacelaunchnow-prod-east.nyc3.digitaloceanspaces.com/media/launch_images/pad_22_20200803143437.jpg","total_launch_count":106},"webcast_live":false,"image":"https://spacelaunchnow-prod-east.nyc3.digitaloceanspaces.com/media/launcher_images/long_march_4c_image_20230801172338.jpeg","infographic":null,"program":[]},{"id":"1c75cf8f-7097-46cc-9fe3-28c4886df4a6","url":"https://ll.thespacedevs.com/2.0.0/launch/1c75cf8f-7097-46cc-9fe3-28c4886df4a6/","launch_library_id":null,"slug":"falcon-9-block-5-starlink-group-6-19","name":"Falcon 9 Block 5 | Starlink Group 6-19","status":{"id":2,"name":"TBD"},"net":"2023-09-28T22:53:00Z","window_end":"2023-09-29T03:24:00Z","window_start":"2023-09-28T22:53:00Z","inhold":false,"tbdtime":false,"tbddate":false,"probability":null,"holdreason":"","failreason":"","hashtag":null,"launch_service_provider":{"id":121,"url":"https://ll.thespacedevs.com/2.0.0/agencies/121/","name":"SpaceX","type":"Commercial"},"rocket":{"id":7961,"configuration":{"id":164,"launch_library_id":188,"url":"https://ll.thespacedevs.com/2.0.0/config/launcher/164/","name":"Falcon 9","family":"Falcon","full_name":"Falcon 9 Block 5","variant":"Block 5"}},"mission":{"id":6478,"launch_library_id":null,"name":"Starlink Group 6-19","description":"A batch of satellites for the Starlink mega-constellation - SpaceX's project for space-based Internet communication system.","launch_designator":null,"type":"Communications","orbit":{"id":8,"name":"Low Earth Orbit","abbrev":"LEO"}},"pad":{"id":80,"url":"https://ll.thespacedevs.com/2.0.0/pad/80/","agency_id":121,"name":"Space Launch Complex 40","info_url":null,"wiki_url":"https://en.wikipedia.org/wiki/Cape_Canaveral_Air_Force_Station_Space_Launch_Complex_40","map_url":"https://www.google.com/maps?q=28.56194122,-80.57735736","latitude":"28.56194122","longitude":"-80.57735736","location":{"id":12,"url":"https://ll.thespacedevs.com/2.0.0/location/12/","name":"Cape Canaveral, FL, USA","country_code":"USA","map_image":"https://spacelaunchnow-prod-east.nyc3.digitaloceanspaces.com/media/launch_images/location_12_20200803142519.jpg","total_launch_count":909,"total_landing_count":37},"map_image":"https://spacelaunchnow-prod-east.nyc3.digitaloceanspaces.com/media/launch_images/pad_80_20200803143323.jpg","total_launch_count":201},"webcast_live":false,"image":"https://spacelaunchnow-prod-east.nyc3.digitaloceanspaces.com/media/launch_images/falcon2520925_image_20230727063129.png","infographic":null,"program":[]},{"id":"16c2eec5-df98-4f84-8bf1-813f5fccf3f0","url":"https://ll.thespacedevs.com/2.0.0/launch/16c2eec5-df98-4f84-8bf1-813f5fccf3f0/","launch_library_id":null,"slug":"falcon-9-block-5-starlink-group-6-21","name":"Falcon 9 Block 5 | Starlink Group 6-21","status":{"id":2,"name":"TBD"},"net":"2023-10-05T00:00:00Z","window_end":"2023-10-05T00:00:00Z","window_start":"2023-10-05T00:00:00Z","inhold":false,"tbdtime":false,"tbddate":false,"probability":null,"holdreason":"","failreason":"","hashtag":null,"launch_service_provider":{"id":121,"url":"https://ll.thespacedevs.com/2.0.0/agencies/121/","name":"SpaceX","type":"Commercial"},"rocket":{"id":7962,"configuration":{"id":164,"launch_library_id":188,"url":"https://ll.thespacedevs.com/2.0.0/config/launcher/164/","name":"Falcon 9","family":"Falcon","full_name":"Falcon 9 Block 5","variant":"Block 5"}},"mission":{"id":6479,"launch_library_id":null,"name":"Starlink Group 6-21","description":"A batch of satellites for the Starlink mega-constellation - SpaceX's project for space-based Internet communication system.","launch_designator":null,"type":"Communications","orbit":{"id":8,"name":"Low Earth Orbit","abbrev":"LEO"}},"pad":{"id":80,"url":"https://ll.thespacedevs.com/2.0.0/pad/80/","agency_id":121,"name":"Space Launch Complex 40","info_url":null,"wiki_url":"https://en.wikipedia.org/wiki/Cape_Canaveral_Air_Force_Station_Space_Launch_Complex_40","map_url":"https://www.google.com/maps?q=28.56194122,-80.57735736","latitude":"28.56194122","longitude":"-80.57735736","location":{"id":12,"url":"https://ll.thespacedevs.com/2.0.0/location/12/","name":"Cape Canaveral, FL, USA","country_code":"USA","map_image":"https://spacelaunchnow-prod-east.nyc3.digitaloceanspaces.com/media/launch_images/location_12_20200803142519.jpg","total_launch_count":909,"total_landing_count":37},"map_image":"https://spacelaunchnow-prod-east.nyc3.digitaloceanspaces.com/media/launch_images/pad_80_20200803143323.jpg","total_launch_count":201},"webcast_live":false,"image":"https://spacelaunchnow-prod-east.nyc3.digitaloceanspaces.com/media/launch_images/falcon2520925_image_20230727063457.png","infographic":null,"program":[]},{"id":"b17abaa1-ef18-4c29-9ed9-a02eb4967bfa","url":"https://ll.thespacedevs.com/2.0.0/launch/b17abaa1-ef18-4c29-9ed9-a02eb4967bfa/","launch_library_id":null,"slug":"spaceshiptwo-galactic-04","name":"SpaceShipTwo | Galactic 04","status":{"id":2,"name":"TBD"},"net":"2023-10-05T00:00:00Z","window_end":"2023-10-05T00:00:00Z","window_start":"2023-10-05T00:00:00Z","inhold":false,"tbdtime":false,"tbddate":false,"probability":null,"holdreason":"","failreason":"","hashtag":null,"launch_service_provider":{"id":1024,"url":"https://ll.thespacedevs.com/2.0.0/agencies/1024/","name":"Virgin Galactic","type":"Private"},"rocket":{"id":8026,"configuration":{"id":465,"launch_library_id":null,"url":"https://ll.thespacedevs.com/2.0.0/config/launcher/465/","name":"SpaceShipTwo","family":"SpaceShipTwo","full_name":"SpaceShipTwo","variant":""}},"mission":{"id":6557,"launch_library_id":null,"name":"Galactic 04","description":"Fourth commercial Virgin Galactic mission.","launch_designator":null,"type":"Tourism","orbit":{"id":15,"name":"Suborbital","abbrev":"Sub"}},"pad":{"id":191,"url":"https://ll.thespacedevs.com/2.0.0/pad/191/","agency_id":1024,"name":"Spaceport America","info_url":"https://www.spaceportamerica.com/","wiki_url":"https://en.wikipedia.org/wiki/Spaceport_America","map_url":"https://www.google.com/maps?q=32.9902778,-106.9719162","latitude":"32.9902778","longitude":"-106.9719162","location":{"id":144,"url":"https://ll.thespacedevs.com/2.0.0/location/144/","name":"Air launch to Suborbital flight","country_code":"","map_image":"https://spacelaunchnow-prod-east.nyc3.digitaloceanspaces.com/media/launch_images/location_144_20200803142439.jpg","total_launch_count":82,"total_landing_count":0},"map_image":"https://spacelaunchnow-prod-east.nyc3.digitaloceanspaces.com/media/launch_images/pad_spaceport_america_20210522162030.jpg","total_launch_count":10},"webcast_live":false,"image":"https://spacelaunchnow-prod-east.nyc3.digitaloceanspaces.com/media/launcher_images/spaceshiptwo_image_20210522140909.jpeg","infographic":null,"program":[]},{"id":"355ab4b9-504c-49ce-84bf-a6df31a0aadf","url":"https://ll.thespacedevs.com/2.0.0/launch/355ab4b9-504c-49ce-84bf-a6df31a0aadf/","launch_library_id":null,"slug":"vega-theos-2-triton-others","name":"Vega | THEOS-2, TRITON & others","status":{"id":1,"name":"Go"},"net":"2023-10-05T01:36:00Z","window_end":"2023-10-05T01:36:00Z","window_start":"2023-10-05T01:36:00Z","inhold":false,"tbdtime":false,"tbddate":false,"probability":null,"holdreason":"","failreason":"","hashtag":null,"launch_service_provider":{"id":115,"url":"https://ll.thespacedevs.com/2.0.0/agencies/115/","name":"Arianespace","type":"Commercial"},"rocket":{"id":7903,"configuration":{"id":167,"launch_library_id":18,"url":"https://ll.thespacedevs.com/2.0.0/config/launcher/167/","name":"Vega","family":"Vega","full_name":"Vega","variant":""}},"mission":{"id":6492,"launch_library_id":null,"name":"THEOS-2, TRITON & others","description":"THEOS-2 is Thailand’s first Earth observation satellite. Built by Airbus Defense and Space and based on the Astrobus-S platform, it is designed for optical measurements with a ground resolution of approximately 1 meter.\r\n\r\nTRITON or FORMOSAT-7R is an additional satellite by NSPO added to the joint Taiwanese-US FORMOSAT 7 / COSMIC-2 constellation for collecting atmospheric data for weather prediction and for ionosphere, climate and gravity research. Its GNSS Reflectometry payload can be used to calculate the wind speed over sea surfaces.\r\n\r\nPROBA-V-CC (Project for On-Board Autonomy - Vegetation - Companion CubeSat) is a mission that will fly a scaled-down version of the vegetation-monitoring instrument aboard the Earth-observing PROBA-V to conduct combined experimental observations with its predecessor.","launch_designator":null,"type":"Dedicated Rideshare","orbit":{"id":17,"name":"Sun-Synchronous Orbit","abbrev":"SSO"}},"pad":{"id":34,"url":"https://ll.thespacedevs.com/2.0.0/pad/34/","agency_id":115,"name":"Ariane Launch Area 1","info_url":null,"wiki_url":"https://en.wikipedia.org/wiki/ELA-1","map_url":"https://www.google.com/maps?q=5.236,-52.775","latitude":"5.236","longitude":"-52.775","location":{"id":13,"url":"https://ll.thespacedevs.com/2.0.0/location/13/","name":"Kourou, French Guiana","country_code":"GUF","map_image":"https://spacelaunchnow-prod-east.nyc3.digitaloceanspaces.com/media/launch_images/location_13_20200803142412.jpg","total_launch_count":319,"total_landing_count":0},"map_image":"https://spacelaunchnow-prod-east.nyc3.digitaloceanspaces.com/media/launch_images/pad_34_20200803143527.jpg","total_launch_count":48},"webcast_live":false,"image":"https://spacelaunchnow-prod-east.nyc3.digitaloceanspaces.com/media/launcher_images/vega_image_20201111143622.jpeg","infographic":null,"program":[]},{"id":"66133437-db31-4098-8e3e-cf34c8125f9b","url":"https://ll.thespacedevs.com/2.0.0/launch/66133437-db31-4098-8e3e-cf34c8125f9b/","launch_library_id":2046,"slug":"falcon-heavy-psyche","name":"Falcon Heavy | Psyche","status":{"id":1,"name":"Go"},"net":"2023-10-05T14:34:00Z","window_end":"2023-10-05T14:34:00Z","window_start":"2023-10-05T14:34:00Z","inhold":false,"tbdtime":false,"tbddate":false,"probability":null,"holdreason":"","failreason":"","hashtag":null,"launch_service_provider":{"id":121,"url":"https://ll.thespacedevs.com/2.0.0/agencies/121/","name":"SpaceX","type":"Commercial"},"rocket":{"id":2691,"configuration":{"id":161,"launch_library_id":58,"url":"https://ll.thespacedevs.com/2.0.0/config/launcher/161/","name":"Falcon Heavy","family":"Falcon","full_name":"Falcon Heavy","variant":"Heavy"}},"mission":{"id":1098,"launch_library_id":1295,"name":"Psyche","description":"Psyche is a NASA interplanetary mission to visit the main belt asteroid of the same name, 16 Psyche. Spacecraft will take 4 years and one Mars flyby to reach the asteroid, which is of particular interest due to being comprised mostly of iron and nickel. Psyche is theorized to be a remnant of an early planet's core, and may offer insights into how solar system formed and evolved. The mission is led by Arizona State University, with NASA JPL being responsible for mission management and operations.","launch_designator":null,"type":"Planetary Science","orbit":{"id":6,"name":"Heliocentric N/A","abbrev":"Helio-N/A"}},"pad":{"id":87,"url":"https://ll.thespacedevs.com/2.0.0/pad/87/","agency_id":121,"name":"Launch Complex 39A","info_url":null,"wiki_url":"https://en.wikipedia.org/wiki/Kennedy_Space_Center_Launch_Complex_39#Launch_Pad_39A","map_url":"https://www.google.com/maps?q=28.60822681,-80.60428186","latitude":"28.60822681","longitude":"-80.60428186","location":{"id":27,"url":"https://ll.thespacedevs.com/2.0.0/location/27/","name":"Kennedy Space Center, FL, USA","country_code":"USA","map_image":"https://spacelaunchnow-prod-east.nyc3.digitaloceanspaces.com/media/launch_images/location_27_20200803142447.jpg","total_launch_count":223,"total_landing_count":0},"map_image":"https://spacelaunchnow-prod-east.nyc3.digitaloceanspaces.com/media/launch_images/pad_87_20200803143537.jpg","total_launch_count":165},"webcast_live":false,"image":"https://spacelaunchnow-prod-east.nyc3.digitaloceanspaces.com/media/launcher_images/falcon_heavy_image_20220129192819.jpeg","infographic":null,"program":[]},{"id":"9086bd21-5422-41b9-a492-963aababd8fd","url":"https://ll.thespacedevs.com/2.0.0/launch/9086bd21-5422-41b9-a492-963aababd8fd/","launch_library_id":null,"slug":"atlas-v-501-project-kuiper-protoflight-mission-atl","name":"Atlas V 501 | Project Kuiper Protoflight Mission (Atlas V #1)","status":{"id":2,"name":"TBD"},"net":"2023-10-07T00:00:00Z","window_end":"2023-10-07T00:00:00Z","window_start":"2023-10-07T00:00:00Z","inhold":false,"tbdtime":false,"tbddate":false,"probability":null,"holdreason":"","failreason":"","hashtag":null,"launch_service_provider":{"id":124,"url":"https://ll.thespacedevs.com/2.0.0/agencies/124/","name":"United Launch Alliance","type":"Commercial"},"rocket":{"id":135,"configuration":{"id":4,"launch_library_id":32,"url":"https://ll.thespacedevs.com/2.0.0/config/launcher/4/","name":"Atlas V 501","family":"Atlas","full_name":"Atlas V 501","variant":"501"}},"mission":{"id":5992,"launch_library_id":null,"name":"Project Kuiper Protoflight Mission (Atlas V #1)","description":"This launch will launch 2 KuiperSat demonstration satellites to 500 km altitude, 30 degree inclination orbit. They were previously scheduled on the 1st Vulcan launch.\r\n\r\nProject Kuiper is a mega constellation of satellites in Low Earth Orbit that will offer broadband internet access, this constellation will be managed by Kuiper Systems LLC, a subsidiary of Amazon. This constellation is planned to be composed of 3,276 satellites. The satellites are projected to be placed in 98 orbital planes in three orbital layers, one at 590 km, 610 km and 630 km altitude.","launch_designator":null,"type":"Communications","orbit":{"id":8,"name":"Low Earth Orbit","abbrev":"LEO"}},"pad":{"id":29,"url":"https://ll.thespacedevs.com/2.0.0/pad/29/","agency_id":null,"name":"Space Launch Complex 41","info_url":null,"wiki_url":"https://en.wikipedia.org/wiki/Cape_Canaveral_Air_Force_Station_Space_Launch_Complex_41","map_url":"https://www.google.com/maps?q=28.58341025,-80.58303644","latitude":"28.58341025","longitude":"-80.58303644","location":{"id":12,"url":"https://ll.thespacedevs.com/2.0.0/location/12/","name":"Cape Canaveral, FL, USA","country_code":"USA","map_image":"https://spacelaunchnow-prod-east.nyc3.digitaloceanspaces.com/media/launch_images/location_12_20200803142519.jpg","total_launch_count":909,"total_landing_count":37},"map_image":"https://spacelaunchnow-prod-east.nyc3.digitaloceanspaces.com/media/launch_images/pad_29_20200803143528.jpg","total_launch_count":109},"webcast_live":false,"image":"https://spacelaunchnow-prod-east.nyc3.digitaloceanspaces.com/media/launcher_images/atlas2520v2520501_image_20190222030851.jpeg","infographic":null,"program":[]},{"id":"b9fe915a-4359-4cc4-a23e-a9a5d8cf7856","url":"https://ll.thespacedevs.com/2.0.0/launch/b9fe915a-4359-4cc4-a23e-a9a5d8cf7856/","launch_library_id":null,"slug":"miura-1-sn1-test-flight","name":"Miura 1 | SN1 Test Flight","status":{"id":2,"name":"TBD"},"net":"2023-10-07T00:00:00Z","window_end":"2023-10-07T00:00:00Z","window_start":"2023-10-07T00:00:00Z","inhold":false,"tbdtime":false,"tbddate":false,"probability":null,"holdreason":"","failreason":"","hashtag":null,"launch_service_provider":{"id":1051,"url":"https://ll.thespacedevs.com/2.0.0/agencies/1051/","name":"Payload Aerospace S.L.","type":"Commercial"},"rocket":{"id":7881,"configuration":{"id":494,"launch_library_id":null,"url":"https://ll.thespacedevs.com/2.0.0/config/launcher/494/","name":"Miura 1","family":"Miura","full_name":"Miura 1","variant":""}},"mission":{"id":6388,"launch_library_id":null,"name":"SN1 Test Flight","description":"The first flight of PLD Space's MIURA 1 SN1 technology demonstrator allows the collection of as much data as possible for the validation and design of the technology to be transferred and integrated into MIURA 5. In addition, this first suborbital flight allows ZARM Research Institution to study microgravity conditions, gathering information necessary for scientific experiments in future suborbital flights.\r\nFinally, a PLD Space team shall pick up the rocket in the Atlantic Ocean once splashdown is completed.","launch_designator":null,"type":"Test Flight","orbit":{"id":15,"name":"Suborbital","abbrev":"Sub"}},"pad":{"id":207,"url":"https://ll.thespacedevs.com/2.0.0/pad/207/","agency_id":null,"name":"Médano del Loro","info_url":null,"wiki_url":"https://en.wikipedia.org/wiki/El_Arenosillo","map_url":null,"latitude":"37.09687","longitude":"-6.73863","location":{"id":163,"url":"https://ll.thespacedevs.com/2.0.0/location/163/","name":"El Arenosillo Test Centre","country_code":"ESP","map_image":"https://spacelaunchnow-prod-east.nyc3.digitaloceanspaces.com/media/launch_images/location_el_arenosillo_test_centre_20230530101023.jpg","total_launch_count":0,"total_landing_count":0},"map_image":"https://spacelaunchnow-prod-east.nyc3.digitaloceanspaces.com/media/launch_images/pad_miura_1_pad_20230530101735.jpg","total_launch_count":0},"webcast_live":false,"image":"https://spacelaunchnow-prod-east.nyc3.digitaloceanspaces.com/media/launcher_images/miura_1_image_20230530100729.png","infographic":null,"program":[]}]}